<html>
   <head>
       <title>CSE 402: Introduction to Compiler Construction</title>
   </head>
   <body>
   <h1>
       CSE 402: Introduction to Compiler Construction
   </h1>
   <a href="https://courses.cs.washington.edu/courses/cse402/19sp">Visit</a>
   </body>
</html>

