<html><body>
<ul>
   <li>The Phantom Menace</li>

   <li>Attack of the Clones</li>

   <li>Revenge of the Sith</li>

   <li>A New Hope</li>

   <li>The Empire Strikes Back</li>

   <li>Return of the Jedi</li>

   <li>The Force Awakens</li>

   <li>The Last Jedi</li>
</ul>
</body></html>

